<?xml version="1.0" encoding="UTF-8"?>
<svg width="24px" height="24px" viewBox="0 0 24 24" version="1.1" xmlns="http://www.w3.org/2000/svg" xmlns:xlink="http://www.w3.org/1999/xlink">
    <!-- Generator: Sketch 48.1 (47250) - http://www.bohemiancoding.com/sketch -->
    <title>icon/20px/Google</title>
    <desc>Created with Sketch.</desc>
    <defs>
        <path d="M17,7.66166439 C16.372442,7.02046385 15.6903138,6.52933151 14.9672578,6.18826739 C14.2442019,5.84720327 13.3301501,5.6834925 12.2796726,5.6834925 C11.4338336,5.6834925 10.6289222,5.83356071 9.87858117,6.13369714 C9.12824011,6.43383356 8.473397,6.85675307 7.91405184,7.40245566 C7.34106412,7.94815825 6.89085948,8.61664393 6.56343793,9.39427012 C6.23601637,10.1718963 6.07230559,11.0313779 6.07230559,11.9863574 C6.07230559,12.941337 6.23601637,13.8008186 6.56343793,14.5784447 C6.89085948,15.3560709 7.34106412,16.0109141 7.91405184,16.5566166 C8.48703956,17.1023192 9.15552524,17.5388813 9.9058663,17.8390177 C10.6562074,18.1391542 11.4747613,18.2892224 12.3342428,18.2892224 C13.2482947,18.2892224 14.053206,18.1664393 14.7353342,17.9072306 C15.4174625,17.6480218 16.0040928,17.2933151 16.4952251,16.8567531 C16.8226467,16.5566166 17.1227831,16.1882674 17.3819918,15.7517053 C17.6412005,15.3015007 17.845839,14.8103683 17.9959072,14.2646658 L12.2251023,14.2646658 L12.2251023,10.9904502 L21.638472,10.9904502 C21.6930423,11.2087312 21.73397,11.46794 21.7748977,11.7953615 C21.8158254,12.1227831 21.8294679,12.4229195 21.8294679,12.7366985 C21.8294679,14.0327422 21.638472,15.2060027 21.2564802,16.2837653 C20.8744884,17.361528 20.2878581,18.3028649 19.5238745,19.1350614 C18.6643929,20.0491132 17.6412005,20.744884 16.4406548,21.2496589 C15.2401091,21.7544338 13.8622101,22 12.3206003,22 C10.9290587,22 9.61937244,21.7544338 8.39154161,21.2496589 C7.16371078,20.744884 6.08594816,20.0491132 5.15825375,19.1623465 C4.24420191,18.2755798 3.52114598,17.2251023 2.97544338,16.0109141 C2.42974079,14.7967258 2.17053206,13.4461119 2.17053206,12 C2.17053206,10.5538881 2.44338336,9.21691678 2.97544338,7.98908595 C3.50750341,6.76125512 4.23055935,5.71077763 5.15825375,4.82401091 C6.07230559,3.9372442 7.15006821,3.25511596 8.39154161,2.75034106 C9.63301501,2.24556617 10.9427012,2 12.3206003,2 C13.9031378,2 15.308322,2.2728513 16.5225102,2.81855389 C17.7366985,3.36425648 18.787176,4.11459754 19.6739427,5.06957708 L17,7.66166439 Z" id="path-1"></path>
    </defs>
    <g id="Symbols" stroke="none" stroke-width="1" fill="none" fill-rule="evenodd">
        <g id="icon/20px/Google">
            <mask id="mask-2" fill="white">
                <use xlink:href="#path-1"></use>
            </mask>
            <use id="Google" fill="#172B4D" fill-rule="nonzero" xlink:href="#path-1"></use>
        </g>
    </g>
</svg>