<?xml version="1.0" encoding="UTF-8"?>
<svg width="24px" height="24px" viewBox="0 0 24 24" version="1.1" xmlns="http://www.w3.org/2000/svg" xmlns:xlink="http://www.w3.org/1999/xlink">
    <!-- Generator: Sketch 48.1 (47250) - http://www.bohemiancoding.com/sketch -->
    <title>icon/20px/menu</title>
    <desc>Created with Sketch.</desc>
    <defs>
        <path d="M5,16 C5,15.4477153 5.44994876,15 6.00684547,15 L17.9931545,15 C18.5492199,15 19,15.4438648 19,16 C19,16.5522847 18.5500512,17 17.9931545,17 L6.00684547,17 C5.45078007,17 5,16.5561352 5,16 Z M5,8 C5,7.44771525 5.44994876,7 6.00684547,7 L17.9931545,7 C18.5492199,7 19,7.44386482 19,8 C19,8.55228475 18.5500512,9 17.9931545,9 L6.00684547,9 C5.45078007,9 5,8.55613518 5,8 Z M5,12 C5,11.4477153 5.44994876,11 6.00684547,11 L17.9931545,11 C18.5492199,11 19,11.4438648 19,12 C19,12.5522847 18.5500512,13 17.9931545,13 L6.00684547,13 C5.45078007,13 5,12.5561352 5,12 Z" id="path-1"></path>
    </defs>
    <g id="Symbols" stroke="none" stroke-width="1" fill="none" fill-rule="evenodd">
        <g id="icon/20px/menu">
            <mask id="mask-2" fill="white">
                <use xlink:href="#path-1"></use>
            </mask>
            <use id="menu" fill="#42526E" xlink:href="#path-1"></use>
        </g>
    </g>
</svg>