<?xml version="1.0" encoding="UTF-8"?>
<svg width="24px" height="24px" viewBox="0 0 24 24" version="1.1" xmlns="http://www.w3.org/2000/svg" xmlns:xlink="http://www.w3.org/1999/xlink">
    <!-- Generator: Sketch 48.1 (47250) - http://www.bohemiancoding.com/sketch -->
    <title>icon/20px/notification-all</title>
    <desc>Created with Sketch.</desc>
    <defs>
        <path d="M11.3995888,5.49367458 C12.3855888,4.50867458 13.6775888,4.01567458 14.9695888,4.01567458 C15.9415888,4.01567458 16.9145888,4.29567458 17.7575888,4.85467458 C17.7775888,4.82867458 17.8005888,4.80467458 17.8235888,4.78067458 C18.2185888,4.38667458 18.8575888,4.38667458 19.2515888,4.78067458 C19.6455888,5.17567458 19.6455888,5.81467458 19.2515888,6.20767458 C19.2275888,6.23167458 19.2025888,6.25467458 19.1775888,6.27467458 C20.4785888,8.23567458 20.2655888,10.9036746 18.5375888,12.6306746 L17.8127439,13.3558581 C17.030623,14.1383442 15.999452,15.5662877 15.5010556,16.5622516 L13.9915888,19.5786746 C13.7425888,20.0786746 13.2185888,20.1626746 12.8205888,19.7656746 L4.26458883,11.2106746 C3.86758883,10.8136746 3.95658883,10.2866746 4.45158883,10.0386746 L7.46863945,8.53046309 C8.4572012,8.03628504 9.88937952,7.00458927 10.6747439,6.21885807 L11.3995888,5.49367458 Z M7.939851,3.63332542 L8.340851,4.60132542 C8.551851,5.11132542 8.309851,5.69632542 7.799851,5.90732542 C7.288851,6.11932542 6.703851,5.87632542 6.492851,5.36632542 L6.091851,4.39832542 C5.880851,3.88832542 6.122851,3.30332542 6.632851,3.09232542 C7.143851,2.88032542 7.728851,3.12332542 7.939851,3.63332542 Z M4.398851,6.09190628 L5.366851,6.49290628 C5.876851,6.70490628 6.118851,7.28990628 5.907851,7.79990628 C5.695851,8.30990628 5.110851,8.55190628 4.600851,8.34090628 L3.632851,7.93990628 C3.122851,7.72790628 2.880851,7.14290628 3.091851,6.63290628 C3.303851,6.12290628 3.888851,5.88090628 4.398851,6.09190628 Z M16.2331468,18.0916746 C16.3581468,18.0406746 16.4881468,18.0156746 16.6151468,18.0156746 C17.0081468,18.0156746 17.3811468,18.2486746 17.5401468,18.6336746 L17.9411468,19.6006746 C18.1521468,20.1126746 17.9091468,20.6976746 17.4001468,20.9076746 C16.8891468,21.1196746 16.3041468,20.8766746 16.0931468,20.3666746 L15.6911468,19.3986746 C15.4811468,18.8886746 15.7241468,18.3036746 16.2331468,18.0916746 Z M18.0922849,16.234675 C18.2512849,15.848675 18.6242849,15.615675 19.0162849,15.615675 C19.1442849,15.615675 19.2732849,15.640675 19.3982849,15.692675 L20.3672849,16.093675 C20.8762849,16.305675 21.1192849,16.889675 20.9082849,17.399675 C20.6962849,17.910675 20.1102849,18.152675 19.6012849,17.941675 L18.6322849,17.540675 C18.1232849,17.328675 17.8802849,16.743675 18.0922849,16.234675 Z M6.50061931,17.6841746 C5.71961931,16.9031746 5.71961931,15.6361746 6.50061931,14.8551746 L9.32961931,17.6841746 C8.54861931,18.4651746 7.28161931,18.4651746 6.50061931,17.6841746 Z" id="path-1"></path>
    </defs>
    <g id="Symbols" stroke="none" stroke-width="1" fill="none" fill-rule="evenodd">
        <g id="icon/20px/notification-all">
            <mask id="mask-2" fill="white">
                <use xlink:href="#path-1"></use>
            </mask>
            <use id="Combined-Shape" fill="#3F4F71" fill-rule="nonzero" xlink:href="#path-1"></use>
        </g>
    </g>
</svg>