<?xml version="1.0" encoding="UTF-8"?>
<svg width="24px" height="24px" viewBox="0 0 24 24" version="1.1" xmlns="http://www.w3.org/2000/svg" xmlns:xlink="http://www.w3.org/1999/xlink">
    <!-- Generator: Sketch 48.1 (47250) - http://www.bohemiancoding.com/sketch -->
    <title>icon/20px/refresh</title>
    <desc>Created with Sketch.</desc>
    <defs>
        <path d="M16,16.2879616 C17.2504983,15.1233564 17.999037,13.4448143 17.999037,11.630011 C17.999037,9.19323935 16.648037,7.0115998 14.571037,5.98274067 C14.072037,5.73593944 13.860037,5.11529163 14.097037,4.59565529 C14.269037,4.22076734 14.628037,4 15.002037,4 C15.145037,4 15.291037,4.03332337 15.429037,4.10205283 C18.197037,5.47247653 19.999037,8.3820235 19.999037,11.630011 C19.999037,14.1316159 18.9306414,16.4402879 17.1599091,17.9966611 L19,17.9966611 C19.553,17.9966611 20,18.445409 20,18.9983306 C20,19.5512521 19.553,20 19,20 L15.1,20 C14.493,20 14,19.506177 14,18.8981636 L14,15.0016694 C14,14.4477462 14.448,14 15,14 C15.552,14 16,14.4477462 16,15.0016694 L16,16.2879616 Z M6.83918171,6.0033389 L5,6.0033389 C4.44771525,6.0033389 4,5.55487621 4,5.00166945 C4,4.44846269 4.44771525,4 5,4 L8.9,4 C9.50728475,4 10,4.49353781 10,5.10183639 L10,8.99833055 C10,9.55153731 9.55228475,10 9,10 C8.44771525,10 8,9.55153731 8,8.99833055 L8,7.7118719 C6.74903863,8.87643487 5.9998,10.5551199 5.9998,12.3703101 C5.9998,14.8070226 7.35127967,16.9894079 9.42819965,18.0178142 C9.92697606,18.264788 10.1390655,18.8860858 9.90191458,19.4055218 C9.66476369,19.9249578 9.06817675,20.145832 8.56940035,19.8988582 C5.80186113,18.5284854 3.9998,15.6184958 3.9998,12.3703101 C3.9998,9.86845947 5.06852199,7.55967925 6.83918171,6.0033389 Z" id="path-1"></path>
    </defs>
    <g id="Symbols" stroke="none" stroke-width="1" fill="none" fill-rule="evenodd">
        <g id="icon/20px/refresh">
            <mask id="mask-2" fill="white">
                <use xlink:href="#path-1"></use>
            </mask>
            <use id="refresh" fill="#3F4F71" fill-rule="nonzero" xlink:href="#path-1"></use>
        </g>
    </g>
</svg>