<?xml version="1.0" encoding="UTF-8"?>
<svg width="24px" height="24px" viewBox="0 0 24 24" version="1.1" xmlns="http://www.w3.org/2000/svg" xmlns:xlink="http://www.w3.org/1999/xlink">
    <!-- Generator: Sketch 48.1 (47250) - http://www.bohemiancoding.com/sketch -->
    <title>icon/20px/video-circle</title>
    <desc>Created with Sketch.</desc>
    <defs>
        <path d="M12,22 C6.4771525,22 2,17.5228475 2,12 C2,6.4771525 6.4771525,2 12,2 C17.5228475,2 22,6.4771525 22,12 C22,17.5228475 17.5228475,22 12,22 Z M17.37,14.9536722 C17.6554286,15.0919557 18,14.9039523 18,14.6110711 L18,9.38892889 C18,9.09604766 17.6554286,8.90804433 17.37,9.04632777 L15,10.1937696 L15,13.8070073 L17.37,14.9536722 Z M6,9.99077797 L6,14.009222 C6,14.5490248 6.4463856,15 6.99703014,15 L13.0029699,15 C13.5469637,15 14,14.5564136 14,14.009222 L14,9.99077797 C14,9.45097518 13.5536144,9 13.0029699,9 L6.99703014,9 C6.45303631,9 6,9.44358641 6,9.99077797 Z" id="path-1"></path>
    </defs>
    <g id="Symbols" stroke="none" stroke-width="1" fill="none" fill-rule="evenodd">
        <g id="icon/20px/video-circle">
            <mask id="mask-2" fill="white">
                <use xlink:href="#path-1"></use>
            </mask>
            <use id="Combined-Shape" fill="#42526E" xlink:href="#path-1"></use>
        </g>
    </g>
</svg>