<?xml version="1.0" encoding="UTF-8"?>
<svg width="16px" height="16px" viewBox="0 0 16 16" version="1.1" xmlns="http://www.w3.org/2000/svg" xmlns:xlink="http://www.w3.org/1999/xlink">
    <!-- Generator: Sketch 48.2 (47327) - http://www.bohemiancoding.com/sketch -->
    <title>icon/16px/activity-16px</title>
    <desc>Created with Sketch.</desc>
    <defs>
        <path d="M3,2.5 L13,2.5 C14.1045695,2.5 15,3.3954305 15,4.5 L15,11.5 C15,12.6045695 14.1045695,13.5 13,13.5 L3,13.5 C1.8954305,13.5 1,12.6045695 1,11.5 L1,4.5 C1,3.3954305 1.8954305,2.5 3,2.5 Z M3.3246385,5.64043304 C3.75419331,5.64043304 4.10241628,5.28865677 4.10241628,4.85471875 C4.10241628,4.42078073 3.75419331,4.06900447 3.3246385,4.06900447 C2.8950837,4.06900447 2.54686072,4.42078073 2.54686072,4.85471875 C2.54686072,5.28865677 2.8950837,5.64043304 3.3246385,5.64043304 Z M6.4577791,4.07239518 C6.0247774,4.07239518 5.67376017,4.42341241 5.67376017,4.85641411 C5.67376017,5.28941581 6.0247774,5.64043304 6.4577791,5.64043304 L12.6691203,5.64043304 C13.102122,5.64043304 13.4531393,5.28941581 13.4531393,4.85641411 C13.4531393,4.42341241 13.102122,4.07239518 12.6691203,4.07239518 L6.4577791,4.07239518 Z M2.56264906,7.21428571 L2.56264906,11.9143872 L13.4531393,11.9143872 L13.4531393,7.21428571 L2.56264906,7.21428571 Z" id="path-1"></path>
    </defs>
    <g id="Symbols" stroke="none" stroke-width="1" fill="none" fill-rule="evenodd">
        <g id="icon/16px/activity">
            <mask id="mask-2" fill="white">
                <use xlink:href="#path-1"></use>
            </mask>
            <use id="Combined-Shape" fill="#42526E" xlink:href="#path-1"></use>
        </g>
    </g>
</svg>