<?xml version="1.0" encoding="UTF-8"?>
<svg width="16px" height="16px" viewBox="0 0 16 16" version="1.1" xmlns="http://www.w3.org/2000/svg" xmlns:xlink="http://www.w3.org/1999/xlink">
    <!-- Generator: Sketch 48.2 (47327) - http://www.bohemiancoding.com/sketch -->
    <title>icon/16px/billing-16px</title>
    <desc>Created with Sketch.</desc>
    <defs>
        <path d="M3.23000002,3.1784498 C3.23000002,2.07510276 4.12750005,1.18066326 5.22989663,1.18066326 L10.7701034,1.18066326 C11.8746158,1.18066326 12.77,2.07553472 12.77,3.1784498 L12.77,12.8215502 C12.77,13.9248972 11.8724999,14.8193367 10.7701034,14.8193367 L5.22989663,14.8193367 C4.12538423,14.8193367 3.23000002,13.9244653 3.23000002,12.8215502 L3.23000002,3.1784498 Z M4.59285716,2.54453061 L4.59285716,13.4554694 L11.4071428,13.4554694 L11.4071428,2.54453061 L4.59285716,2.54453061 Z M5.27428573,4.59033163 C5.27428573,4.21371006 5.58299761,3.90839796 5.96471292,3.90839796 L10.0352871,3.90839796 C10.4165995,3.90839796 10.7257143,4.21108433 10.7257143,4.59033163 C10.7257143,4.9669532 10.4170024,5.2722653 10.0352871,5.2722653 L5.96471292,5.2722653 C5.58340051,5.2722653 5.27428573,4.96957894 5.27428573,4.59033163 Z M5.27428573,6.63613265 C5.27428573,6.25951108 5.58871443,5.95419898 5.96377192,5.95419898 L7.99194237,5.95419898 C8.37273508,5.95419898 8.68142857,6.25688535 8.68142857,6.63613265 C8.68142857,7.01275422 8.36699986,7.31806633 7.99194237,7.31806633 L5.96377192,7.31806633 C5.58297921,7.31806633 5.27428573,7.01537996 5.27428573,6.63613265 Z M5.27428573,8.68193367 C5.27428573,8.30531211 5.58871443,8 5.96377192,8 L7.99194237,8 C8.37273508,8 8.68142857,8.30268637 8.68142857,8.68193367 C8.68142857,9.05855524 8.36699986,9.36386735 7.99194237,9.36386735 L5.96377192,9.36386735 C5.58297921,9.36386735 5.27428573,9.06118098 5.27428573,8.68193367 Z M5.27428573,10.7277347 C5.27428573,10.3511131 5.58871443,10.045801 5.96377192,10.045801 L7.99194237,10.045801 C8.37273508,10.045801 8.68142857,10.3484874 8.68142857,10.7277347 C8.68142857,11.1043563 8.36699986,11.4096684 7.99194237,11.4096684 L5.96377192,11.4096684 C5.58297921,11.4096684 5.27428573,11.106982 5.27428573,10.7277347 Z M9.36285714,8.68193367 C9.36285714,8.30531211 9.66531931,8 10.0442857,8 C10.4206283,8 10.7257143,8.30268637 10.7257143,8.68193367 C10.7257143,9.05855524 10.4232521,9.36386735 10.0442857,9.36386735 C9.6679431,9.36386735 9.36285714,9.06118098 9.36285714,8.68193367 Z M9.36285714,10.7277347 C9.36285714,10.3511131 9.66531931,10.045801 10.0442857,10.045801 C10.4206283,10.045801 10.7257143,10.3484874 10.7257143,10.7277347 C10.7257143,11.1043563 10.4232521,11.4096684 10.0442857,11.4096684 C9.6679431,11.4096684 9.36285714,11.106982 9.36285714,10.7277347 Z M9.36285714,6.63613265 C9.36285714,6.25951108 9.66531931,5.95419898 10.0442857,5.95419898 C10.4206283,5.95419898 10.7257143,6.25688535 10.7257143,6.63613265 C10.7257143,7.01275422 10.4232521,7.31806633 10.0442857,7.31806633 C9.6679431,7.31806633 9.36285714,7.01537996 9.36285714,6.63613265 Z" id="path-1"></path>
    </defs>
    <g id="Symbols" stroke="none" stroke-width="1" fill="none" fill-rule="evenodd">
        <g id="icon/16px/billing">
            <mask id="mask-2" fill="white">
                <use xlink:href="#path-1"></use>
            </mask>
            <use id="Combined-Shape" fill="#42526E" xlink:href="#path-1"></use>
        </g>
    </g>
</svg>