<?xml version="1.0" encoding="UTF-8"?>
<svg width="16px" height="16px" viewBox="0 0 16 16" version="1.1" xmlns="http://www.w3.org/2000/svg" xmlns:xlink="http://www.w3.org/1999/xlink">
    <!-- Generator: Sketch 48.2 (47327) - http://www.bohemiancoding.com/sketch -->
    <title>icon/16px/chevron-right-16px</title>
    <desc>Created with Sketch.</desc>
    <defs>
        <path d="M5.79382533,5.69776905 C5.40205822,5.30938089 5.40205822,4.67967927 5.79382533,4.29129112 C6.18559244,3.90290296 6.82077242,3.90290296 7.21253953,4.29129112 L10.1779468,7.23112205 C10.6073511,7.66762404 10.6073511,8.35312254 10.1779468,8.77882325 L7.22257135,11.7087089 C6.83080424,12.097097 6.19562426,12.097097 5.80385716,11.7087089 C5.41209005,11.3203207 5.41209005,10.6906191 5.80385716,10.3022309 L8.12114618,8.00492831 L5.79382533,5.69776905 Z" id="path-1"></path>
    </defs>
    <g id="Symbols" stroke="none" stroke-width="1" fill="none" fill-rule="evenodd">
        <g id="icon/16px/chevron-right">
            <mask id="mask-2" fill="white">
                <use xlink:href="#path-1"></use>
            </mask>
            <use id="chevron-right-small" fill="#3F4F71" xlink:href="#path-1"></use>
        </g>
    </g>
</svg>