<?xml version="1.0" encoding="UTF-8"?>
<svg width="16px" height="16px" viewBox="0 0 16 16" version="1.1" xmlns="http://www.w3.org/2000/svg" xmlns:xlink="http://www.w3.org/1999/xlink">
    <!-- Generator: Sketch 48.2 (47327) - http://www.bohemiancoding.com/sketch -->
    <title>bitbucket/16px/fork-small-16px</title>
    <desc>Created with Sketch.</desc>
    <defs>
        <path d="M14.706875,10.879125 C15.097875,11.270125 15.097875,11.902125 14.706875,12.293125 L13.292875,13.707125 C13.097875,13.902125 12.841875,14.000125 12.585875,14.000125 C12.329875,14.000125 12.073875,13.902125 11.878875,13.707125 C11.549875,13.378125 11.514875,12.884125 11.740875,12.500125 L8.999875,12.500125 C7.896875,12.500125 6.999875,11.603125 6.999875,10.500125 L6.999875,9.000125 L1.999875,9.000125 C1.446875,9.000125 0.999875,8.553125 0.999875,8.000125 C0.999875,7.447125 1.446875,7.000125 1.999875,7.000125 L6.999875,7.000125 L6.999875,5.500125 C6.999875,4.398125 7.896875,3.500125 8.999875,3.500125 L11.740875,3.500125 C11.514875,3.116125 11.549875,2.622125 11.878875,2.293125 C12.268875,1.902125 12.901875,1.902125 13.292875,2.293125 L14.706875,3.707125 C15.097875,4.098125 15.097875,4.731125 14.706875,5.121125 L13.292875,6.535125 C13.097875,6.731125 12.841875,6.828125 12.585875,6.828125 C12.329875,6.828125 12.073875,6.731125 11.878875,6.535125 C11.598875,6.255125 11.526875,5.851125 11.648875,5.500125 L8.999875,5.500125 L8.999875,10.500125 L11.648875,10.500125 C11.526875,10.150125 11.598875,9.745125 11.878875,9.465125 C12.268875,9.074125 12.901875,9.074125 13.292875,9.465125 L14.706875,10.879125 Z" id="path-1"></path>
    </defs>
    <g id="Symbols" stroke="none" stroke-width="1" fill="none" fill-rule="evenodd">
        <g id="bitbucket/16px/fork-small">
            <mask id="mask-2" fill="white">
                <use xlink:href="#path-1"></use>
            </mask>
            <use id="fork" fill="#42526E" xlink:href="#path-1"></use>
        </g>
    </g>
</svg>