<?xml version="1.0" encoding="UTF-8"?>
<svg width="16px" height="16px" viewBox="0 0 16 16" version="1.1" xmlns="http://www.w3.org/2000/svg" xmlns:xlink="http://www.w3.org/1999/xlink">
    <!-- Generator: Sketch 48.2 (47327) - http://www.bohemiancoding.com/sketch -->
    <title>editor/help</title>
    <desc>Created with Sketch.</desc>
    <defs></defs>
    <g id="Editor-icons" stroke="none" stroke-width="1" fill="none" fill-rule="evenodd">
        <g id="editor/help" fill="#42526E">
            <path d="M4,6 L6.5,6 C6.5,4 8,4 8,4 C9.5,4 10.5,5.5 8.5,7 C7,8 7,8.5 7,10 C7,10.144 6.984,10.824 7,11 L9,11 C9,9.432 9,9 10.5,8 C11.9462079,7.03586137 12,6.104 12,5 C12,3 10.5,2 8,2 C6,2 4,3 4,6 Z M8.9999999,14 L9,12 L7,12 L7,14 L8.9999999,14 Z" id="Shape"></path>
        </g>
    </g>
</svg>