<?xml version="1.0" encoding="UTF-8"?>
<svg width="16px" height="16px" viewBox="0 0 16 16" version="1.1" xmlns="http://www.w3.org/2000/svg" xmlns:xlink="http://www.w3.org/1999/xlink">
    <!-- Generator: Sketch 48.2 (47327) - http://www.bohemiancoding.com/sketch -->
    <title>confluence/16px/horizontal-rule</title>
    <desc>Created with Sketch.</desc>
    <defs>
        <path d="M1,9.00240438 L15,9.00240438 C15.5522847,9.00240438 16,8.55468913 16,8.00240438 L16,7.99759562 C16,7.44531087 15.5522847,6.99759562 15,6.99759562 L1,6.99759562 C0.44771525,6.99759562 -6.76353751e-17,7.44531087 0,7.99759562 L0,8.00240438 C6.76353751e-17,8.55468913 0.44771525,9.00240438 1,9.00240438 Z" id="path-1"></path>
    </defs>
    <g id="Editor-icons" stroke="none" stroke-width="1" fill="none" fill-rule="evenodd">
        <g id="confluence/16px/horizontal-rule">
            <mask id="mask-2" fill="white">
                <use xlink:href="#path-1"></use>
            </mask>
            <use id="Path-3" fill="#41516F" xlink:href="#path-1"></use>
        </g>
    </g>
</svg>