<?xml version="1.0" encoding="UTF-8"?>
<svg width="16px" height="16px" viewBox="0 0 16 16" version="1.1" xmlns="http://www.w3.org/2000/svg" xmlns:xlink="http://www.w3.org/1999/xlink">
    <!-- Generator: Sketch 48.2 (47327) - http://www.bohemiancoding.com/sketch -->
    <title>bitbucket/16px/multiple-commits</title>
    <desc>Created with Sketch.</desc>
    <defs>
        <path d="M6,9 C5.448,9 5,8.552 5,8 C5,7.448 5.448,7 6,7 C6.552,7 7,7.448 7,8 C7,8.552 6.552,9 6,9 M6,1 C5.45,1 5,1.45 5,2 L5,5.184 C3.837,5.597 3,6.696 3,8 C3,9.304 3.837,10.403 5,10.816 L5,14 C5,14.55 5.45,15 6,15 C6.55,15 7,14.55 7,14 L7,10.816 C8.163,10.403 9,9.304 9,8 C9,6.696 8.163,5.597 7,5.184 L7,2 C7,1.45 6.55,1 6,1 M10,1 C9.45,1 9,1.45 9,2 L9,5.148 C9.487,5.66 9.839,6.296 10.015,7.003 C10.56,7.012 11,7.453 11,8 C11,8.547 10.56,8.988 10.015,8.997 C9.839,9.704 9.487,10.34 9,10.852 L9,14 C9,14.55 9.45,15 10,15 C10.55,15 11,14.55 11,14 L11,10.816 C12.163,10.403 13,9.304 13,8 C13,6.696 12.163,5.597 11,5.184 L11,2 C11,1.45 10.55,1 10,1" id="path-1"></path>
    </defs>
    <g id="Symbols" stroke="none" stroke-width="1" fill="none" fill-rule="evenodd">
        <g id="bitbucket/16px/multiple-commits">
            <mask id="mask-2" fill="white">
                <use xlink:href="#path-1"></use>
            </mask>
            <use id="commits" fill="#42526E" xlink:href="#path-1"></use>
        </g>
    </g>
</svg>