<?xml version="1.0" encoding="UTF-8"?>
<svg width="16px" height="16px" viewBox="0 0 16 16" version="1.1" xmlns="http://www.w3.org/2000/svg" xmlns:xlink="http://www.w3.org/1999/xlink">
    <!-- Generator: Sketch 52.5 (67469) - http://www.bohemiancoding.com/sketch -->
    <title>icon/16px/search</title>
    <desc>Created with Sketch.</desc>
    <defs>
        <path d="M3.33328472,6.83321181 C3.33328472,4.90358534 4.90358534,3.33328472 6.83321181,3.33328472 C8.76283827,3.33328472 10.3331389,4.90358534 10.3331389,6.83321181 C10.3331389,8.76283827 8.76283827,10.3331389 6.83321181,10.3331389 C4.90358534,10.3331389 3.33328472,8.76283827 3.33328472,6.83321181 Z M11.6957772,10.0461449 C12.3059311,9.12449741 12.6664236,8.02202037 12.6664236,6.83321181 C12.6664236,3.61211225 10.055478,1 6.83321181,1 C3.61094561,1 1,3.61211225 1,6.83321181 C1,10.0543114 3.61094561,12.6664236 6.83321181,12.6664236 C8.02202037,12.6664236 9.12449741,12.3070978 10.0461449,11.6957772 C10.4598396,11.5953697 10.7178388,11.5953697 10.8201423,11.6957772 C10.9735977,11.8463883 10.7118303,12.3614626 10.8201423,12.4697746 C11.3063885,12.9560208 12.0357576,13.6853899 13.0082498,14.6578821 C13.2357451,14.8853774 13.5344055,14.9997083 13.833066,14.9997083 C14.1317264,14.9997083 14.4303869,14.8853774 14.6578821,14.6578821 C15.1140393,14.201725 15.1140393,13.464407 14.6578821,13.0082498 C13.6862037,12.0365714 12.9574449,11.3078126 12.4716057,10.8219734 C12.3752701,10.7256378 11.8538041,10.9688064 11.6957772,10.8219734 C11.5904259,10.7240847 11.5904259,10.4654752 11.6957772,10.0461449 Z" id="path-1"/>
    </defs>
    <g id="icon/16px/search" stroke="none" stroke-width="1" fill="none" fill-rule="evenodd">
        <use id="search-small-copy" fill="#42526E" xlink:href="#path-1"/>
    </g>
</svg>