<?xml version="1.0" encoding="UTF-8"?>
<svg width="16px" height="16px" viewBox="0 0 16 16" version="1.1" xmlns="http://www.w3.org/2000/svg" xmlns:xlink="http://www.w3.org/1999/xlink">
    <!-- Generator: Sketch 48.2 (47327) - http://www.bohemiancoding.com/sketch -->
    <title>bamboo/16px/successful-build-16px</title>
    <desc>Created with Sketch.</desc>
    <defs>
        <path d="M11.707,5.293 C12.098,5.684 12.098,6.316 11.707,6.707 L7.707,10.707 C7.316,11.098 6.684,11.098 6.293,10.707 L4.293,8.707 C3.902,8.316 3.902,7.684 4.293,7.293 C4.684,6.902 5.316,6.902 5.707,7.293 L7,8.586 L10.293,5.293 C10.684,4.902 11.316,4.902 11.707,5.293 M8,13.6 C4.9123,13.6 2.4,11.0877 2.4,8 C2.4,4.9123 4.9123,2.4 8,2.4 C11.0877,2.4 13.6,4.9123 13.6,8 C13.6,11.0877 11.0877,13.6 8,13.6 M8,1 C4.1339,1 1,4.1339 1,8 C1,11.8661 4.1339,15 8,15 C11.8661,15 15,11.8661 15,8 C15,4.1339 11.8661,1 8,1" id="path-1"></path>
    </defs>
    <g id="Symbols" stroke="none" stroke-width="1" fill="none" fill-rule="evenodd">
        <g id="bamboo/16px/successful-build">
            <mask id="mask-2" fill="white">
                <use xlink:href="#path-1"></use>
            </mask>
            <use id="successful-build" fill="#172B4D" xlink:href="#path-1"></use>
        </g>
    </g>
</svg>