<?xml version="1.0" encoding="UTF-8"?>
<svg width="16px" height="16px" viewBox="0 0 16 16" version="1.1" xmlns="http://www.w3.org/2000/svg" xmlns:xlink="http://www.w3.org/1999/xlink">
    <!-- Generator: Sketch 48.2 (47327) - http://www.bohemiancoding.com/sketch -->
    <title>icon/16px/vid-audio-on-16px</title>
    <desc>Created with Sketch.</desc>
    <defs>
        <path d="M5.73314325,3.46413452 C5.73314325,2.21337262 6.75059706,1.19942975 8,1.19942975 C9.25195041,1.19942975 10.2668567,2.2131853 10.2668567,3.46413452 L10.2668567,8.00215198 C10.2668567,9.25291389 9.24940294,10.2668567 8,10.2668567 C6.74804959,10.2668567 5.73314325,9.2531012 5.73314325,8.00215198 L5.73314325,3.46413452 Z M8.75561892,12.4708815 L8.75561892,14.037872 C8.75561892,14.4590986 8.42022626,14.8005702 8,14.8005702 C7.5826832,14.8005702 7.24438108,14.4655642 7.24438108,14.037872 L7.24438108,12.4708511 C5.1001512,12.1101613 3.4662865,10.2411828 3.4662865,8.00473065 L3.4662865,5.73314325 C3.4662865,5.31582645 3.80458861,4.97752434 4.22190542,4.97752434 C4.63922222,4.97752434 4.97752434,5.31582645 4.97752434,5.73314325 L4.97752434,8.00473065 C4.97752434,9.66588577 6.33376609,11.0224757 8,11.0224757 C9.66654699,11.0224757 11.0224757,9.66901245 11.0224757,8.00473065 L11.0224757,5.73314325 C11.0224757,5.31582645 11.3607778,4.97752434 11.7780946,4.97752434 C12.1954114,4.97752434 12.5337135,5.31582645 12.5337135,5.73314325 L12.5337135,8.00473065 C12.5337135,10.2483969 10.8963928,12.111002 8.75561892,12.4708815 Z" id="path-1"></path>
    </defs>
    <g id="Symbols" stroke="none" stroke-width="1" fill="none" fill-rule="evenodd">
        <g id="icon/16px/vid-audio-on">
            <mask id="mask-2" fill="white">
                <use xlink:href="#path-1"></use>
            </mask>
            <use id="Combined-Shape" fill="#42526E" xlink:href="#path-1"></use>
        </g>
    </g>
</svg>